sim/addr_decoder_tb.vcd
$date
	Mon Mar  3 11:36:33 2025
$end
$version
	Icarus Verilog
$end
$timescale
	1s
$end
$scope module addr_decoder_tb $end
$var wire 1 ! wr_slave2_sel $end
$var wire 1 " wr_slave1_sel $end
$var wire 64 # s2_wr_addr [63:0] $end
$var wire 64 $ s2_rd_addr [63:0] $end
$var wire 64 % s1_wr_addr [63:0] $end
$var wire 64 & s1_rd_addr [63:0] $end
$var wire 1 ' rd_slave2_sel $end
$var wire 1 ( rd_slave1_sel $end
$var parameter 64 ) S1_WIDTH $end
$var reg 1 * i_clk $end
$var reg 64 + rd_addr [63:0] $end
$var reg 64 , wr_addr [63:0] $end
$var integer 32 - count [31:0] $end
$var integer 32 . error [31:0] $end
$scope module addr_decoder_inst $end
$var wire 64 / rd_addr [63:0] $end
$var wire 1 0 rd_gr_eq $end
$var wire 1 ( rd_slave1_sel $end
$var wire 1 ' rd_slave2_sel $end
$var wire 64 1 s1_rd_addr [63:0] $end
$var wire 64 2 s1_wr_addr [63:0] $end
$var wire 64 3 wr_addr [63:0] $end
$var wire 1 4 wr_gr_eq $end
$var wire 1 " wr_slave1_sel $end
$var wire 1 ! wr_slave2_sel $end
$var wire 1 5 wr_less $end
$var wire 1 6 wr_equal $end
$var wire 64 7 s2_wr_addr [63:0] $end
$var wire 64 8 s2_rd_addr [63:0] $end
$var wire 1 9 rd_less $end
$var wire 1 : rd_equal $end
$var parameter 64 ; S1_WIDTH $end
$scope module comp_rd $end
$var wire 1 9 less $end
$var wire 32 < not_b [31:0] $end
$var wire 1 = overflow $end
$var wire 32 > rs1_data [31:0] $end
$var wire 32 ? rs2_data [31:0] $end
$var wire 32 @ sub [31:0] $end
$var wire 1 : equal $end
$var wire 1 A carry $end
$upscope $end
$scope module comp_wr $end
$var wire 1 5 less $end
$var wire 32 B not_b [31:0] $end
$var wire 1 C overflow $end
$var wire 32 D rs1_data [31:0] $end
$var wire 32 E rs2_data [31:0] $end
$var wire 32 F sub [31:0] $end
$var wire 1 6 equal $end
$var wire 1 G carry $end
$upscope $end
$upscope $end
$upscope $end
$enddefinitions $end
$comment Show the parameter values. $end
$dumpall
b110010 ;
b110010 )
$end
#0
$dumpvars
xG
bx F
b110010 E
bx D
xC
b11111111111111111111111111001101 B
xA
bx @
b110010 ?
bx >
x=
b11111111111111111111111111001101 <
x:
x9
bx 8
bx 7
x6
x5
x4
bx 3
bx 2
bx 1
x0
bx /
b0 .
b1 -
bx ,
bx +
0*
x(
x'
bx &
bx %
bx $
bx #
x"
x!
$end
#5
06
0!
04
0:
1'
10
1"
15
0C
0(
09
0=
b11111111111111111111111111100111 F
0G
b111 @
1A
b11001 D
b111001 >
b10 -
b11001 %
b11001 2
b1111111111111111111111111111111111111111111111111111111111100111 #
b1111111111111111111111111111111111111111111111111111111111100111 7
b11001 ,
b11001 3
b111001 &
b111001 1
b111 $
b111 8
b111001 +
b111001 /
1*
#10
0*
#15
0'
00
1(
19
b11111111111111111111111111100001 F
b11111111111111111111111111001111 @
0A
b10011 D
b1 >
b11 -
b10011 %
b10011 2
b1111111111111111111111111111111111111111111111111111111111100001 #
b1111111111111111111111111111111111111111111111111111111111100001 7
b10011 ,
b10011 3
b1 &
b1 1
b1111111111111111111111111111111111111111111111111111111111001111 $
b1111111111111111111111111111111111111111111111111111111111001111 8
b1 +
b1 /
1*
#20
0*
#25
1!
14
1'
10
0"
05
0(
09
b11100 F
1G
b11 @
1A
b1001110 D
b110101 >
b100 -
b1001110 %
b1001110 2
b11100 #
b11100 7
b1001110 ,
b1001110 3
b110101 &
b110101 1
b11 $
b11 8
b110101 +
b110101 /
1*
#30
0*
#35
0!
04
0'
00
1"
15
1(
19
b11111111111111111111111111010001 F
0G
b11111111111111111111111111100010 @
0A
b11 D
b10100 >
b101 -
b11 %
b11 2
b1111111111111111111111111111111111111111111111111111111111010001 #
b1111111111111111111111111111111111111111111111111111111111010001 7
b11 ,
b11 3
b10100 &
b10100 1
b1111111111111111111111111111111111111111111111111111111111100010 $
b1111111111111111111111111111111111111111111111111111111111100010 8
b10100 +
b10100 /
1*
#40
0*
#45
1!
14
1:
1'
10
0"
05
0(
09
b11 F
1G
b0 @
1A
b110101 D
b110010 >
b110 -
b110101 %
b110101 2
b11 #
b11 7
b110101 ,
b110101 3
b110010 &
b110010 1
b0 $
b0 8
b110010 +
b110010 /
1*
#50
0*
#55
0:
b1100 F
b10111 @
b111110 D
b1001001 >
b111 -
b111110 %
b111110 2
b1100 #
b1100 7
b111110 ,
b111110 3
b1001001 &
b1001001 1
b10111 $
b10111 8
b1001001 +
b1001001 /
1*
#60
0*
#65
b11100 F
b101111 @
b1001110 D
b1100001 >
b1000 -
b1001110 %
b1001110 2
b11100 #
b11100 7
b1001110 ,
b1001110 3
b1100001 &
b1100001 1
b101111 $
b101111 8
b1100001 +
b1100001 /
1*
#70
0*
#75
0!
04
1"
15
b11111111111111111111111111110101 F
0G
b110001 @
b100111 D
b1100011 >
b1001 -
b100111 %
b100111 2
b1111111111111111111111111111111111111111111111111111111111110101 #
b1111111111111111111111111111111111111111111111111111111111110101 7
b100111 ,
b100111 3
b1100011 &
b1100011 1
b110001 $
b110001 8
b1100011 +
b1100011 /
1*
#80
0*
#85
0'
00
1(
19
b11111111111111111111111111101111 F
b11111111111111111111111111110101 @
0A
b100001 D
b100111 >
b1010 -
b100001 %
b100001 2
b1111111111111111111111111111111111111111111111111111111111101111 #
b1111111111111111111111111111111111111111111111111111111111101111 7
b100001 ,
b100001 3
b100111 &
b100111 1
b1111111111111111111111111111111111111111111111111111111111110101 $
b1111111111111111111111111111111111111111111111111111111111110101 8
b100111 +
b100111 /
1*
#90
0*
#95
1'
10
0(
09
b11111111111111111111111111100101 F
b101101 @
1A
b10111 D
b1011111 >
b1011 -
b10111 %
b10111 2
b1111111111111111111111111111111111111111111111111111111111100101 #
b1111111111111111111111111111111111111111111111111111111111100101 7
b10111 ,
b10111 3
b1011111 &
b1011111 1
b101101 $
b101101 8
b1011111 +
b1011111 /
1*
#100
0*
#105
1!
14
0'
00
0"
05
1(
19
b11100 F
1G
b11111111111111111111111111010001 @
0A
b1001110 D
b11 >
b1100 -
b1001110 %
b1001110 2
b11100 #
b11100 7
b1001110 ,
b1001110 3
b11 &
b11 1
b1111111111111111111111111111111111111111111111111111111111010001 $
b1111111111111111111111111111111111111111111111111111111111010001 8
b11 +
b11 /
1*
#110
0*
#115
0!
04
1'
10
1"
15
0(
09
b11111111111111111111111111110110 F
0G
b110000 @
1A
b101000 D
b1100010 >
b1101 -
b101000 %
b101000 2
b1111111111111111111111111111111111111111111111111111111111110110 #
b1111111111111111111111111111111111111111111111111111111111110110 7
b101000 ,
b101000 3
b1100010 &
b1100010 1
b110000 $
b110000 8
b1100010 +
b1100010 /
1*
#120
0*
#125
0'
00
1(
19
b11111111111111111111111111110100 F
b11111111111111111111111111111011 @
0A
b100110 D
b101101 >
b1110 -
b100110 %
b100110 2
b1111111111111111111111111111111111111111111111111111111111110100 #
b1111111111111111111111111111111111111111111111111111111111110100 7
b100110 ,
b100110 3
b101101 &
b101101 1
b1111111111111111111111111111111111111111111111111111111111111011 $
b1111111111111111111111111111111111111111111111111111111111111011 8
b101101 +
b101101 /
1*
#130
0*
#135
1'
10
0(
09
b11111111111111111111111111110011 F
b10010 @
1A
b100101 D
b1000100 >
b1111 -
b100101 %
b100101 2
b1111111111111111111111111111111111111111111111111111111111110011 #
b1111111111111111111111111111111111111111111111111111111111110011 7
b100101 ,
b100101 3
b1000100 &
b1000100 1
b10010 $
b10010 8
b1000100 +
b1000100 /
1*
#140
0*
#145
0'
00
1(
19
b11111111111111111111111111100001 F
b11111111111111111111111111010110 @
0A
b10011 D
b1000 >
b10000 -
b10011 %
b10011 2
b1111111111111111111111111111111111111111111111111111111111100001 #
b1111111111111111111111111111111111111111111111111111111111100001 7
b10011 ,
b10011 3
b1000 &
b1000 1
b1111111111111111111111111111111111111111111111111111111111010110 $
b1111111111111111111111111111111111111111111111111111111111010110 8
b1000 +
b1000 /
1*
#150
0*
#155
1!
14
0"
05
b10 F
1G
b11111111111111111111111111100001 @
b110100 D
b10011 >
b10001 -
b110100 %
b110100 2
b10 #
b10 7
b110100 ,
b110100 3
b10011 &
b10011 1
b1111111111111111111111111111111111111111111111111111111111100001 $
b1111111111111111111111111111111111111111111111111111111111100001 8
b10011 +
b10011 /
1*
#160
0*
#165
b110 F
b11111111111111111111111111100111 @
b111000 D
b11001 >
b10010 -
b111000 %
b111000 2
b110 #
b110 7
b111000 ,
b111000 3
b11001 &
b11001 1
b1111111111111111111111111111111111111111111111111111111111100111 $
b1111111111111111111111111111111111111111111111111111111111100111 8
b11001 +
b11001 /
1*
#170
0*
#175
0!
04
1'
10
1"
15
0(
09
b11111111111111111111111111101101 F
0G
b100010 @
1A
b11111 D
b1010100 >
b10011 -
b11111 %
b11111 2
b1111111111111111111111111111111111111111111111111111111111101101 #
b1111111111111111111111111111111111111111111111111111111111101101 7
b11111 ,
b11111 3
b1010100 &
b1010100 1
b100010 $
b100010 8
b1010100 +
b1010100 /
1*
#180
0*
#185
0'
00
1(
19
b11111111111111111111111111010001 F
b11111111111111111111111111101011 @
0A
b11 D
b11101 >
b10100 -
b11 %
b11 2
b1111111111111111111111111111111111111111111111111111111111010001 #
b1111111111111111111111111111111111111111111111111111111111010001 7
b11 ,
b11 3
b11101 &
b11101 1
b1111111111111111111111111111111111111111111111111111111111101011 $
b1111111111111111111111111111111111111111111111111111111111101011 8
b11101 +
b11101 /
1*
#190
0*
#195
b11111111111111111111111111011110 F
b11111111111111111111111111010000 @
b10000 D
b10 >
b10101 -
b10000 %
b10000 2
b1111111111111111111111111111111111111111111111111111111111011110 #
b1111111111111111111111111111111111111111111111111111111111011110 7
b10000 ,
b10000 3
b10 &
b10 1
b1111111111111111111111111111111111111111111111111111111111010000 $
b1111111111111111111111111111111111111111111111111111111111010000 8
b10 +
b10 /
1*
#200
0*
#205
1'
10
0(
09
b11111111111111111111111111111000 F
b10101 @
1A
b101010 D
b1000111 >
b10110 -
b101010 %
b101010 2
b1111111111111111111111111111111111111111111111111111111111111000 #
b1111111111111111111111111111111111111111111111111111111111111000 7
b101010 ,
b101010 3
b1000111 &
b1000111 1
b10101 $
b10101 8
b1000111 +
b1000111 /
1*
#210
0*
#215
0'
00
1(
19
b11111111111111111111111111110000 F
b11111111111111111111111111001110 @
0A
b100010 D
b0 >
b10111 -
b100010 %
b100010 2
b1111111111111111111111111111111111111111111111111111111111110000 #
b1111111111111111111111111111111111111111111111111111111111110000 7
b100010 ,
b100010 3
b0 &
b0 1
b1111111111111111111111111111111111111111111111111111111111001110 $
b1111111111111111111111111111111111111111111111111111111111001110 8
b0 +
b0 /
1*
#220
0*
#225
1'
10
0(
09
b11111111111111111111111111110110 F
b110 @
1A
b101000 D
b111000 >
b11000 -
b101000 %
b101000 2
b1111111111111111111111111111111111111111111111111111111111110110 #
b1111111111111111111111111111111111111111111111111111111111110110 7
b101000 ,
b101000 3
b111000 &
b111000 1
b110 $
b110 8
b111000 +
b111000 /
1*
#230
0*
#235
1!
14
0"
05
b10 F
1G
b111 @
b110100 D
b111001 >
b11001 -
b110100 %
b110100 2
b10 #
b10 7
b110100 ,
b110100 3
b111001 &
b111001 1
b111 $
b111 8
b111001 +
b111001 /
1*
#240
0*
#245
0!
04
0'
00
1"
15
1(
19
b11111111111111111111111111011001 F
0G
b11111111111111111111111111110110 @
0A
b1011 D
b101000 >
b11010 -
b1011 %
b1011 2
b1111111111111111111111111111111111111111111111111111111111011001 #
b1111111111111111111111111111111111111111111111111111111111011001 7
b1011 ,
b1011 3
b101000 &
b101000 1
b1111111111111111111111111111111111111111111111111111111111110110 $
b1111111111111111111111111111111111111111111111111111111111110110 8
b101000 +
b101000 /
1*
#250
0*
#255
1!
14
1'
10
0"
05
0(
09
b11011 F
1G
b110000 @
1A
b1001101 D
b1100010 >
b11011 -
b1001101 %
b1001101 2
b11011 #
b11011 7
b1001101 ,
b1001101 3
b1100010 &
b1100010 1
b110000 $
b110000 8
b1100010 +
b1100010 /
1*
#260
0*
#265
0!
04
1"
15
b11111111111111111111111111111000 F
0G
b1101 @
b101010 D
b111111 >
b11100 -
b101010 %
b101010 2
b1111111111111111111111111111111111111111111111111111111111111000 #
b1111111111111111111111111111111111111111111111111111111111111000 7
b101010 ,
b101010 3
b111111 &
b111111 1
b1101 $
b1101 8
b111111 +
b111111 /
1*
#270
0*
#275
b11111111111111111111111111101001 F
b11000 @
b11011 D
b1001010 >
b11101 -
b11011 %
b11011 2
b1111111111111111111111111111111111111111111111111111111111101001 #
b1111111111111111111111111111111111111111111111111111111111101001 7
b11011 ,
b11011 3
b1001010 &
b1001010 1
b11000 $
b11000 8
b1001010 +
b1001010 /
1*
#280
0*
#285
1!
14
0"
05
b100100 F
1G
b101110 @
b1010110 D
b1100000 >
b11110 -
b1010110 %
b1010110 2
b100100 #
b100100 7
b1010110 ,
b1010110 3
b1100000 &
b1100000 1
b101110 $
b101110 8
b1100000 +
b1100000 /
1*
#290
0*
#295
b100010 F
b100111 @
b1010100 D
b1011001 >
b11111 -
b1010100 %
b1010100 2
b100010 #
b100010 7
b1010100 ,
b1010100 3
b1011001 &
b1011001 1
b100111 $
b100111 8
b1011001 +
b1011001 /
1*
#300
0*
#305
0'
00
1(
19
b1000 F
b11111111111111111111111111110011 @
0A
b111010 D
b100101 >
b100000 -
b111010 %
b111010 2
b1000 #
b1000 7
b111010 ,
b111010 3
b100101 &
b100101 1
b1111111111111111111111111111111111111111111111111111111111110011 $
b1111111111111111111111111111111111111111111111111111111111110011 8
b100101 +
b100101 /
1*
#310
0*
#315
0!
04
1"
15
b11111111111111111111111111100100 F
0G
b11111111111111111111111111010000 @
b10110 D
b10 >
b100001 -
b10110 %
b10110 2
b1111111111111111111111111111111111111111111111111111111111100100 #
b1111111111111111111111111111111111111111111111111111111111100100 7
b10110 ,
b10110 3
b10 &
b10 1
b1111111111111111111111111111111111111111111111111111111111010000 $
b1111111111111111111111111111111111111111111111111111111111010000 8
b10 +
b10 /
1*
#320
0*
#325
1!
14
1'
10
0"
05
0(
09
b10000 F
1G
b11010 @
1A
b1000010 D
b1001100 >
b100010 -
b1000010 %
b1000010 2
b10000 #
b10000 7
b1000010 ,
b1000010 3
b1001100 &
b1001100 1
b11010 $
b11010 8
b1001100 +
b1001100 /
1*
#330
0*
#335
0'
00
1(
19
b1011 F
b11111111111111111111111111011001 @
0A
b111101 D
b1011 >
b100011 -
b111101 %
b111101 2
b1011 #
b1011 7
b111101 ,
b111101 3
b1011 &
b1011 1
b1111111111111111111111111111111111111111111111111111111111011001 $
b1111111111111111111111111111111111111111111111111111111111011001 8
b1011 +
b1011 /
1*
#340
0*
#345
b100 F
b11111111111111111111111111100110 @
b110110 D
b11000 >
b100100 -
b110110 %
b110110 2
b100 #
b100 7
b110110 ,
b110110 3
b11000 &
b11000 1
b1111111111111111111111111111111111111111111111111111111111100110 $
b1111111111111111111111111111111111111111111111111111111111100110 8
b11000 +
b11000 /
1*
#350
0*
#355
1'
10
0(
09
b101011 F
b110000 @
1A
b1011101 D
b1100010 >
b100101 -
b1011101 %
b1011101 2
b101011 #
b101011 7
b1011101 ,
b1011101 3
b1100010 &
b1100010 1
b110000 $
b110000 8
b1100010 +
b1100010 /
1*
#360
0*
#365
b1111 F
b10011 @
b1000001 D
b1000101 >
b100110 -
b1000001 %
b1000001 2
b1111 #
b1111 7
b1000001 ,
b1000001 3
b1000101 &
b1000101 1
b10011 $
b10011 8
b1000101 +
b1000101 /
1*
#370
0*
#375
b11100 F
b11111 @
b1001110 D
b1010001 >
b100111 -
b1001110 %
b1001110 2
b11100 #
b11100 7
b1001110 ,
b1001110 3
b1010001 &
b1010001 1
b11111 $
b11111 8
b1010001 +
b1010001 /
1*
#380
0*
#385
0!
04
1"
15
b11111111111111111111111111110010 F
0G
b110001 @
b100100 D
b1100011 >
b101000 -
b100100 %
b100100 2
b1111111111111111111111111111111111111111111111111111111111110010 #
b1111111111111111111111111111111111111111111111111111111111110010 7
b100100 ,
b100100 3
b1100011 &
b1100011 1
b110001 $
b110001 8
b1100011 +
b1100011 /
1*
#390
0*
#395
0'
00
1(
19
b11111111111111111111111111100000 F
b11111111111111111111111111101101 @
0A
b10010 D
b11111 >
b101001 -
b10010 %
b10010 2
b1111111111111111111111111111111111111111111111111111111111100000 #
b1111111111111111111111111111111111111111111111111111111111100000 7
b10010 ,
b10010 3
b11111 &
b11111 1
b1111111111111111111111111111111111111111111111111111111111101101 $
b1111111111111111111111111111111111111111111111111111111111101101 8
b11111 +
b11111 /
1*
#400
0*
#405
1!
14
0"
05
b11011 F
1G
b11111111111111111111111111100000 @
b1001101 D
b10010 >
b101010 -
b1001101 %
b1001101 2
b11011 #
b11011 7
b1001101 ,
b1001101 3
b10010 &
b10010 1
b1111111111111111111111111111111111111111111111111111111111100000 $
b1111111111111111111111111111111111111111111111111111111111100000 8
b10010 +
b10010 /
1*
#410
0*
#415
0!
04
1"
15
b11111111111111111111111111110111 F
0G
b11111111111111111111111111011100 @
b101001 D
b1110 >
b101011 -
b101001 %
b101001 2
b1111111111111111111111111111111111111111111111111111111111110111 #
b1111111111111111111111111111111111111111111111111111111111110111 7
b101001 ,
b101001 3
b1110 &
b1110 1
b1111111111111111111111111111111111111111111111111111111111011100 $
b1111111111111111111111111111111111111111111111111111111111011100 8
b1110 +
b1110 /
1*
#420
0*
#425
b11111111111111111111111111011110 F
b11111111111111111111111111111000 @
b10000 D
b101010 >
b101100 -
b10000 %
b10000 2
b1111111111111111111111111111111111111111111111111111111111011110 #
b1111111111111111111111111111111111111111111111111111111111011110 7
b10000 ,
b10000 3
b101010 &
b101010 1
b1111111111111111111111111111111111111111111111111111111111111000 $
b1111111111111111111111111111111111111111111111111111111111111000 8
b101010 +
b101010 /
1*
#430
0*
#435
1!
14
1'
10
0"
05
0(
09
b10 F
1G
b11110 @
1A
b110100 D
b1010000 >
b101101 -
b110100 %
b110100 2
b10 #
b10 7
b110100 ,
b110100 3
b1010000 &
b1010000 1
b11110 $
b11110 8
b1010000 +
b1010000 /
1*
#440
0*
#445
0'
00
1(
19
b101000 F
b11111111111111111111111111110100 @
0A
b1011010 D
b100110 >
b101110 -
b1011010 %
b1011010 2
b101000 #
b101000 7
b1011010 ,
b1011010 3
b100110 &
b100110 1
b1111111111111111111111111111111111111111111111111111111111110100 $
b1111111111111111111111111111111111111111111111111111111111110100 8
b100110 +
b100110 /
1*
#450
0*
#455
b1100 F
b11111111111111111111111111100101 @
b111110 D
b10111 >
b101111 -
b111110 %
b111110 2
b1100 #
b1100 7
b111110 ,
b111110 3
b10111 &
b10111 1
b1111111111111111111111111111111111111111111111111111111111100101 $
b1111111111111111111111111111111111111111111111111111111111100101 8
b10111 +
b10111 /
1*
#460
0*
#465
0!
04
1'
10
1"
15
0(
09
b11111111111111111111111111100110 F
0G
b100 @
1A
b11000 D
b110110 >
b110000 -
b11000 %
b11000 2
b1111111111111111111111111111111111111111111111111111111111100110 #
b1111111111111111111111111111111111111111111111111111111111100110 7
b11000 ,
b11000 3
b110110 &
b110110 1
b100 $
b100 8
b110110 +
b110110 /
1*
#470
0*
#475
1!
14
0"
05
b1011 F
1G
b10110 @
b111101 D
b1001000 >
b110001 -
b111101 %
b111101 2
b1011 #
b1011 7
b111101 ,
b111101 3
b1001000 &
b1001000 1
b10110 $
b10110 8
b1001000 +
b1001000 /
1*
#480
0*
#485
0!
04
1"
15
b11111111111111111111111111110111 F
0G
b110 @
b101001 D
b111000 >
b110010 -
b101001 %
b101001 2
b1111111111111111111111111111111111111111111111111111111111110111 #
b1111111111111111111111111111111111111111111111111111111111110111 7
b101001 ,
b101001 3
b111000 &
b111000 1
b110 $
b110 8
b111000 +
b111000 /
1*
#490
0*
#495
b11111111111111111111111111100101 F
b11010 @
b10111 D
b1001100 >
b110011 -
b10111 %
b10111 2
b1111111111111111111111111111111111111111111111111111111111100101 #
b1111111111111111111111111111111111111111111111111111111111100101 7
b10111 ,
b10111 3
b1001100 &
b1001100 1
b11010 $
b11010 8
b1001100 +
b1001100 /
1*
#500
0*
#505
1!
14
0"
05
b1110 F
1G
b10010 @
b1000000 D
b1000100 >
b110100 -
b1000000 %
b1000000 2
b1110 #
b1110 7
b1000000 ,
b1000000 3
b1000100 &
b1000100 1
b10010 $
b10010 8
b1000100 +
b1000100 /
1*
#510
0*
#515
0'
00
1(
19
b1000 F
b11111111111111111111111111011010 @
0A
b111010 D
b1100 >
b110101 -
b111010 %
b111010 2
b1000 #
b1000 7
b111010 ,
b111010 3
b1100 &
b1100 1
b1111111111111111111111111111111111111111111111111111111111011010 $
b1111111111111111111111111111111111111111111111111111111111011010 8
b1100 +
b1100 /
1*
#520
0*
#525
0!
04
1'
10
1"
15
0(
09
b11111111111111111111111111101000 F
0G
b10001 @
1A
b11010 D
b1000011 >
b110110 -
b11010 %
b11010 2
b1111111111111111111111111111111111111111111111111111111111101000 #
b1111111111111111111111111111111111111111111111111111111111101000 7
b11010 ,
b11010 3
b1000011 &
b1000011 1
b10001 $
b10001 8
b1000011 +
b1000011 /
1*
#530
0*
#535
0'
00
1(
19
b11111111111111111111111111101100 F
b11111111111111111111111111101010 @
0A
b11110 D
b11100 >
b110111 -
b11110 %
b11110 2
b1111111111111111111111111111111111111111111111111111111111101100 #
b1111111111111111111111111111111111111111111111111111111111101100 7
b11110 ,
b11110 3
b11100 &
b11100 1
b1111111111111111111111111111111111111111111111111111111111101010 $
b1111111111111111111111111111111111111111111111111111111111101010 8
b11100 +
b11100 /
1*
#540
0*
#545
1'
10
0(
09
b11111111111111111111111111010101 F
b110001 @
1A
b111 D
b1100011 >
b111000 -
b111 %
b111 2
b1111111111111111111111111111111111111111111111111111111111010101 #
b1111111111111111111111111111111111111111111111111111111111010101 7
b111 ,
b111 3
b1100011 &
b1100011 1
b110001 $
b110001 8
b1100011 +
b1100011 /
1*
#550
0*
#555
b11111111111111111111111111101110 F
b10111 @
b100000 D
b1001001 >
b111001 -
b100000 %
b100000 2
b1111111111111111111111111111111111111111111111111111111111101110 #
b1111111111111111111111111111111111111111111111111111111111101110 7
b100000 ,
b100000 3
b1001001 &
b1001001 1
b10111 $
b10111 8
b1001001 +
b1001001 /
1*
#560
0*
#565
0'
00
1(
19
b11111111111111111111111111110001 F
b11111111111111111111111111010111 @
0A
b100011 D
b1001 >
b111010 -
b100011 %
b100011 2
b1111111111111111111111111111111111111111111111111111111111110001 #
b1111111111111111111111111111111111111111111111111111111111110001 7
b100011 ,
b100011 3
b1001 &
b1001 1
b1111111111111111111111111111111111111111111111111111111111010111 $
b1111111111111111111111111111111111111111111111111111111111010111 8
b1001 +
b1001 /
1*
#570
0*
#575
1!
14
0"
05
b1101 F
1G
b11111111111111111111111111100000 @
b111111 D
b10010 >
b111011 -
b111111 %
b111111 2
b1101 #
b1101 7
b111111 ,
b111111 3
b10010 &
b10010 1
b1111111111111111111111111111111111111111111111111111111111100000 $
b1111111111111111111111111111111111111111111111111111111111100000 8
b10010 +
b10010 /
1*
#580
0*
#585
0!
04
1'
10
1"
15
0(
09
b11111111111111111111111111110110 F
0G
b110001 @
1A
b101000 D
b1100011 >
b111100 -
b101000 %
b101000 2
b1111111111111111111111111111111111111111111111111111111111110110 #
b1111111111111111111111111111111111111111111111111111111111110110 7
b101000 ,
b101000 3
b1100011 &
b1100011 1
b110001 $
b110001 8
b1100011 +
b1100011 /
1*
#590
0*
#595
1!
14
0'
00
0"
05
1(
19
b10010 F
1G
b11111111111111111111111111111011 @
0A
b1000100 D
b101101 >
b111101 -
b1000100 %
b1000100 2
b10010 #
b10010 7
b1000100 ,
b1000100 3
b101101 &
b101101 1
b1111111111111111111111111111111111111111111111111111111111111011 $
b1111111111111111111111111111111111111111111111111111111111111011 8
b101101 +
b101101 /
1*
#600
0*
#605
0!
04
1'
10
1"
15
0(
09
b11111111111111111111111111111100 F
0G
b1000 @
1A
b101110 D
b111010 >
b111110 -
b101110 %
b101110 2
b1111111111111111111111111111111111111111111111111111111111111100 #
b1111111111111111111111111111111111111111111111111111111111111100 7
b101110 ,
b101110 3
b111010 &
b111010 1
b1000 $
b1000 8
b111010 +
b111010 /
1*
#610
0*
#615
0'
00
1(
19
b11111111111111111111111111100001 F
b11111111111111111111111111111001 @
0A
b10011 D
b101011 >
b111111 -
b10011 %
b10011 2
b1111111111111111111111111111111111111111111111111111111111100001 #
b1111111111111111111111111111111111111111111111111111111111100001 7
b10011 ,
b10011 3
b101011 &
b101011 1
b1111111111111111111111111111111111111111111111111111111111111001 $
b1111111111111111111111111111111111111111111111111111111111111001 8
b101011 +
b101011 /
1*
#620
0*
#625
b11111111111111111111111111111010 F
b11111111111111111111111111110001 @
b101100 D
b100011 >
b1000000 -
b101100 %
b101100 2
b1111111111111111111111111111111111111111111111111111111111111010 #
b1111111111111111111111111111111111111111111111111111111111111010 7
b101100 ,
b101100 3
b100011 &
b100011 1
b1111111111111111111111111111111111111111111111111111111111110001 $
b1111111111111111111111111111111111111111111111111111111111110001 8
b100011 +
b100011 /
1*
#630
0*
#635
1!
14
1'
10
0"
05
0(
09
b1101 F
1G
b11000 @
1A
b111111 D
b1001010 >
b1000001 -
b111111 %
b111111 2
b1101 #
b1101 7
b111111 ,
b111111 3
b1001010 &
b1001010 1
b11000 $
b11000 8
b1001010 +
b1001010 /
1*
#640
0*
#645
0'
00
1(
19
b1000 F
b11111111111111111111111111110111 @
0A
b111010 D
b101001 >
b1000010 -
b111010 %
b111010 2
b1000 #
b1000 7
b111010 ,
b111010 3
b101001 &
b101001 1
b1111111111111111111111111111111111111111111111111111111111110111 $
b1111111111111111111111111111111111111111111111111111111111110111 8
b101001 +
b101001 /
1*
#650
0*
#655
1'
10
0(
09
b11 F
b100010 @
1A
b110101 D
b1010100 >
b1000011 -
b110101 %
b110101 2
b11 #
b11 7
b110101 ,
b110101 3
b1010100 &
b1010100 1
b100010 $
b100010 8
b1010100 +
b1010100 /
1*
#660
0*
#665
0!
04
1"
15
b11111111111111111111111111101100 F
0G
b101100 @
b11110 D
b1011110 >
b1000100 -
b11110 %
b11110 2
b1111111111111111111111111111111111111111111111111111111111101100 #
b1111111111111111111111111111111111111111111111111111111111101100 7
b11110 ,
b11110 3
b1011110 &
b1011110 1
b101100 $
b101100 8
b1011110 +
b1011110 /
1*
#670
0*
#675
1:
b11111111111111111111111111110100 F
b0 @
b100110 D
b110010 >
b1000101 -
b100110 %
b100110 2
b1111111111111111111111111111111111111111111111111111111111110100 #
b1111111111111111111111111111111111111111111111111111111111110100 7
b100110 ,
b100110 3
b110010 &
b110010 1
b0 $
b0 8
b110010 +
b110010 /
1*
#680
0*
#685
1!
14
0:
0"
05
b10000 F
1G
b10001 @
b1000010 D
b1000011 >
b1000110 -
b1000010 %
b1000010 2
b10000 #
b10000 7
b1000010 ,
b1000010 3
b1000011 &
b1000011 1
b10001 $
b10001 8
b1000011 +
b1000011 /
1*
#690
0*
#695
0!
04
0'
00
1"
15
1(
19
b11111111111111111111111111010000 F
0G
b11111111111111111111111111100010 @
0A
b10 D
b10100 >
b1000111 -
b10 %
b10 2
b1111111111111111111111111111111111111111111111111111111111010000 #
b1111111111111111111111111111111111111111111111111111111111010000 7
b10 ,
b10 3
b10100 &
b10100 1
b1111111111111111111111111111111111111111111111111111111111100010 $
b1111111111111111111111111111111111111111111111111111111111100010 8
b10100 +
b10100 /
1*
#700
0*
#705
1'
10
0(
09
b11111111111111111111111111011001 F
b100100 @
1A
b1011 D
b1010110 >
b1001000 -
b1011 %
b1011 2
b1111111111111111111111111111111111111111111111111111111111011001 #
b1111111111111111111111111111111111111111111111111111111111011001 7
b1011 ,
b1011 3
b1010110 &
b1010110 1
b100100 $
b100100 8
b1010110 +
b1010110 /
1*
#710
0*
#715
b11111111111111111111111111110010 F
b11000 @
b100100 D
b1001010 >
b1001001 -
b100100 %
b100100 2
b1111111111111111111111111111111111111111111111111111111111110010 #
b1111111111111111111111111111111111111111111111111111111111110010 7
b100100 ,
b100100 3
b1001010 &
b1001010 1
b11000 $
b11000 8
b1001010 +
b1001010 /
1*
#720
0*
#725
1!
14
0"
05
b11101 F
1G
b11101 @
b1001111 D
b1001111 >
b1001010 -
b1001111 %
b1001111 2
b11101 #
b11101 7
b1001111 ,
b1001111 3
b1001111 &
b1001111 1
b11101 $
b11101 8
b1001111 +
b1001111 /
1*
#730
0*
#735
0!
04
0'
00
1"
15
1(
19
b11111111111111111111111111011111 F
0G
b11111111111111111111111111001110 @
0A
b10001 D
b0 >
b1001011 -
b10001 %
b10001 2
b1111111111111111111111111111111111111111111111111111111111011111 #
b1111111111111111111111111111111111111111111111111111111111011111 7
b10001 ,
b10001 3
b0 &
b0 1
b1111111111111111111111111111111111111111111111111111111111001110 $
b1111111111111111111111111111111111111111111111111111111111001110 8
b0 +
b0 /
1*
#740
0*
#745
1'
10
0(
09
b11111111111111111111111111011101 F
b101011 @
1A
b1111 D
b1011101 >
b1001100 -
b1111 %
b1111 2
b1111111111111111111111111111111111111111111111111111111111011101 #
b1111111111111111111111111111111111111111111111111111111111011101 7
b1111 ,
b1111 3
b1011101 &
b1011101 1
b101011 $
b101011 8
b1011101 +
b1011101 /
1*
#750
0*
#755
b11111111111111111111111111100011 F
b10101 D
b1001101 -
b10101 %
b10101 2
b1111111111111111111111111111111111111111111111111111111111100011 #
b1111111111111111111111111111111111111111111111111111111111100011 7
b10101 ,
b10101 3
1*
#760
0*
